S.N,Name,Address,Mark,Gender
1, Pujan Gautam,Dhapakhel,70,male
2,Santosh Khanal,Syanja,55,male
4,Gopal Tiwari,Syanja,55,male
5,Mukesh Maharjan,Harisiddhi,50,male
6,Uzzal Maharjan,Balkumari,45,male
7,Koshal Shakya,Dhumbarahi,40,male
8,Aajad Shrestha,Godawari,40,male
13,Ramesh Pandey,New Baneshwor,65,male
14,Parash Awale,Balkumari,69,male
19,Bishesh Nakarmi,Kalanki,56,male
20,Anurag Pokhrel,Balkumari,75,male
21,Prashanna Shakya,Satdobato,88,male
24,Sujan Gautam,Belbari,66,male
25,Saharsha Dhami,Dhapakhel,44,male
26,Hari Singh Dhami,Dhapakhel,30,male
